Meer doen met data - Tijdreeksanalyse met timetk
…
Code
url <- "https://www.schielandendekrimpenerwaard.nl/kaart/waterkwaliteit/wkl_gegevens_op_kaart/meetgegevens/S_0121.csv"
download.file(url, "meetgegevens.csv")

Code
library(tidyverse)
library(timetk)

meetreeks <- read_csv2("meetgegevens.csv") %>% 
  filter(parameteromschrijving == "Fosfor totaal") %>% 
  select(meetpuntcode, meetpuntomschrijving, datum, parameteromschrijving, limietsymbool, waarde, eenheid)

meetreeks

# A tibble: 118 × 7
   meetpuntcode meetpuntomschrijving   datum      param…¹ limie…² waarde eenheid
   <chr>        <chr>                  <date>     <chr>   <chr>    <dbl> <chr>  
 1 S_0121       Zevenhuizen Rottedijk… 2013-01-02 Fosfor… <NA>      0.13 mg P/l 
 2 S_0121       Zevenhuizen Rottedijk… 2013-02-07 Fosfor… <NA>      0.13 mg P/l 
 3 S_0121       Zevenhuizen Rottedijk… 2013-03-08 Fosfor… <NA>      0.11 mg P/l 
 4 S_0121       Zevenhuizen Rottedijk… 2013-04-10 Fosfor… <NA>      0.2  mg P/l 
 5 S_0121       Zevenhuizen Rottedijk… 2013-05-07 Fosfor… <NA>      0.29 mg P/l 
 6 S_0121       Zevenhuizen Rottedijk… 2013-06-06 Fosfor… <NA>      0.17 mg P/l 
 7 S_0121       Zevenhuizen Rottedijk… 2013-07-04 Fosfor… <NA>      0.35 mg P/l 
 8 S_0121       Zevenhuizen Rottedijk… 2013-07-31 Fosfor… <NA>      0.8  mg P/l 
 9 S_0121       Zevenhuizen Rottedijk… 2013-08-02 Fosfor… <NA>      0.7  mg P/l 
10 S_0121       Zevenhuizen Rottedijk… 2013-08-07 Fosfor… <NA>      0.68 mg P/l 
# … with 108 more rows, and abbreviated variable names ¹​parameteromschrijving,
#   ²​limietsymbool
…
